PROIECT_CN/Control_Unit/dump.vcd
$date
	Wed Apr 16 18:52:57 2025
$end
$version
	Icarus Verilog
$end
$timescale
	1ps
$end
$scope module Control_Unit_tb $end
$var wire 1 ! finish $end
$var wire 11 " c [10:0] $end
$var reg 1 # a_8 $end
$var reg 1 $ clk $end
$var reg 3 % cnt [2:0] $end
$var reg 1 & q0 $end
$var reg 1 ' q_1 $end
$var reg 1 ( rst_b $end
$var reg 2 ) s [1:0] $end
$var reg 1 * start $end
$var integer 32 + j [31:0] $end
$scope module con $end
$var wire 1 # a_8 $end
$var wire 1 $ clk $end
$var wire 3 , cnt [2:0] $end
$var wire 1 ! finish $end
$var wire 1 & q0 $end
$var wire 1 ' q_1 $end
$var wire 1 ( rst_b $end
$var wire 2 - s [1:0] $end
$var wire 1 * start $end
$var wire 4 . qout [3:0] $end
$var wire 11 / c [10:0] $end
$scope module f0 $end
$var wire 1 $ clk $end
$var wire 1 0 d $end
$var wire 1 1 en $end
$var wire 1 ( rst_b $end
$var reg 1 2 q $end
$upscope $end
$scope module f1 $end
$var wire 1 $ clk $end
$var wire 1 3 d $end
$var wire 1 4 en $end
$var wire 1 ( rst_b $end
$var reg 1 5 q $end
$upscope $end
$scope module f2 $end
$var wire 1 $ clk $end
$var wire 1 6 d $end
$var wire 1 7 en $end
$var wire 1 ( rst_b $end
$var reg 1 8 q $end
$upscope $end
$scope module f3 $end
$var wire 1 $ clk $end
$var wire 1 9 d $end
$var wire 1 : en $end
$var wire 1 ( rst_b $end
$var reg 1 ; q $end
$upscope $end
$upscope $end
$upscope $end
$enddefinitions $end
$comment Show the parameter values. $end
$dumpall
$end
#0
$dumpvars
0;
1:
09
08
17
06
05
14
03
02
11
00
b0 /
b0 .
b11 -
b111 ,
b1 +
0*
b11 )
0(
1'
0&
b111 %
0$
0#
b0 "
0!
$end
#25000
1(
#50000
b10 +
1$
#100000
b11 +
0$
#150000
b100 +
1$
#180000
10
b1 "
b1 /
1*
#200000
b101 +
0$
#250000
00
13
b10 "
b10 /
b1 .
12
b110 +
1$
#260000
0*
#300000
b111 +
0$
#350000
10
13
19
b1000000000 "
b1000000000 /
15
b10 .
02
b1000 +
1$
#400000
b1001 +
0$
#450000
03
09
16
b11000 "
b11000 /
12
b1011 .
1;
b1010 +
1$
#500000
b1011 +
0$
#550000
19
16
00
b10000000000 "
b10000000000 /
0;
18
b101 .
05
b1100 +
1$
#600000
b1101 +
0$
#650000
09
13
b100000 "
b100000 /
02
b1100 .
1;
b1110 +
1$
#700000
b1111 +
0$
#750000
19
13
06
b100000000 "
b100000000 /
0;
b110 .
15
b10000 +
1$
#800000
b10001 +
0$
#850000
03
09
1!
b0 "
b0 /
08
b1010 .
1;
b10010 +
1$
#900000
b10011 +
0$
#950000
0!
0;
b0 .
05
b10100 +
1$
#1000000
b10101 +
0$
#1050000
b10110 +
1$
#1100000
b10111 +
0$
#1150000
b11000 +
1$
#1200000
b11001 +
0$
#1250000
b11010 +
1$
#1300000
b11011 +
0$
#1350000
b11100 +
1$
#1400000
b11101 +
0$
#1450000
b11110 +
1$
#1500000
b11111 +
0$
#1550000
b100000 +
1$
#1600000
b100001 +
0$
#1650000
b100010 +
1$
#1700000
b100011 +
0$
#1750000
b100100 +
1$
#1800000
b100101 +
0$
#1850000
b100110 +
1$
#1900000
b100111 +
0$
#1950000
b101000 +
1$
#2000000
b101001 +
0$
#2050000
b101010 +
1$
#2100000
b101011 +
0$
#2150000
b101100 +
1$
#2200000
b101101 +
0$
#2250000
b101110 +
1$
#2300000
b101111 +
0$
#2350000
b110000 +
1$
#2400000
b110001 +
0$
#2450000
b110010 +
1$
#2500000
b110011 +
0$
#2550000
b110100 +
1$
#2600000
b110101 +
0$
#2650000
b110110 +
1$
#2700000
b110111 +
0$
#2750000
b111000 +
1$
#2800000
b111001 +
0$
#2850000
b111010 +
1$
#2900000
b111011 +
0$
#2950000
b111100 +
1$
#3000000
b111101 +
0$
#3050000
b111110 +
1$
#3100000
b111111 +
0$
#3150000
b1000000 +
1$
#3200000
b1000001 +
0$
#3250000
b1000010 +
1$
#3300000
b1000011 +
0$
#3350000
b1000100 +
1$
#3400000
b1000101 +
0$
#3450000
b1000110 +
1$
#3500000
b1000111 +
0$
#3550000
b1001000 +
1$
#3600000
b1001001 +
0$
#3650000
b1001010 +
1$
#3700000
b1001011 +
0$
#3750000
b1001100 +
1$
#3800000
b1001101 +
0$
#3850000
b1001110 +
1$
#3900000
b1001111 +
0$
#3950000
b1010000 +
1$
#4000000
b1010001 +
0$
#4050000
b1010010 +
1$
#4100000
b1010011 +
0$
#4150000
b1010100 +
1$
#4200000
b1010101 +
0$
#4250000
b1010110 +
1$
#4300000
b1010111 +
0$
#4350000
b1011000 +
1$
#4400000
b1011001 +
0$
#4450000
b1011010 +
1$
#4500000
b1011011 +
0$
#4550000
b1011100 +
1$
#4600000
b1011101 +
0$
#4650000
b1011110 +
1$
#4700000
b1011111 +
0$
#4750000
b1100000 +
1$
#4800000
b1100001 +
0$
#4850000
b1100010 +
1$
#4900000
b1100011 +
0$
#4950000
b1100100 +
1$
#5000000
b1100101 +
0$
